ALU.sim/sim_1/behav/xsim/simulate.log
Time resolution is 1 ps
			A									B										result							Expected					Correct?
----------------------------------------------------------------------------------------------------------------------------------------------------------------------------
Addition:
00111111100000000000000000000000	01000000000000000000000000000000	01000000010000000000000000000000	01000000010000000000000000000000	1
01000000010000000000000000000000	01000000101000000000000000000000	01000001000000000000000000000000	01000001000000000000000000000000	1
01000000100100000000000000000000	01000000011000000000000000000000	01000001000000000000000000000000	01000001000000000000000000000000	1
00111111000000000000000000000000	00111111110000000000000000000000	01000000000000000000000000000000	01000000000000000000000000000000	1
01000000111010000000000000000000	01000000001100000000000000000000	01000001001000000000000000000000	01000001001000000000000000000000	1
00111111100000000000000000000000	00000000000000000000000000000000	00111111100000000000000000000000	00111111100000000000000000000000	1
01000001001001000000000000000000	01000001001100111101011100001010	01000001101010111110101110000101	01000001101010111110101110000101	1
01000010100111011111000010100100	01000010000010111110000101001000	01000010111000111110000101001000	01000010111000111110000101001000	1
01000010100111011111000100100111	01000010000010111110001001001110	01000010111000111110001001001110	01000010111000111110001001001110	1
Subtraction:
01000000000000000000000000000000	00111111100000000000000000000000	00111111100000000000000000000000	00111111100000000000000000000000	1
01000000101000000000000000000000	01000000010000000000000000000000	01000000000000000000000000000000	01000000000000000000000000000000	1
01000000100100000000000000000000	01000000011000000000000000000000	00111111100000000000000000000000	00111111100000000000000000000000	1
00111111000000000000000000000000	00111111110000000000000000000000	10111111100000000000000000000000	10111111100000000000000000000000	1
Multiplication:
01000000000000000000000000000000	00111111100000000000000000000000	01000000000000000000000000000000	01000000000000000000000000000000	1
01000000010000000000000000000000	01000000101000000000000000000000	01000001011100000000000000000000	01000001011100000000000000000000	1
01000010010010000000000000000000	01000001110000000000000000000000	01000100100101100000000000000000	01000100100101100000000000000000	1
00111111101010111000010100011111	01000000001000111101011100001010	01000000010110111000101110101100	01000000010110111000101110101100	1
01000000010110111000101110101100	01000000101111001100101111111011	01000001101000011110100110000001	01000001101000011110100110000010	0
Division:
01000000000000000000000000000000	00111111100000000000000000000000	01000000000000000000000000000000	01000000000000000000000000000000	1
01000000000000000000000000000000	01000010001101000000000000000000	00111101001101100000101101100000	00111101001101100000101101100000	1
01000011010010000000000000000000	00111100001000111101011100001010	01000110100111000100000000000000	01000110100111000100000000000000	1
00111011110001001001101110100110	01000010001000000000000000000000	00111001000111010100100101010001	00111001000111010100100101010010	0
$finish called at time : 240 ns : File "E:/ENTC/5th_sem/DigitalSystemDesign/ALU/ALU.srcs/sim_1/new/ALU_tb.v" Line 223
